{
  "packageDirectories": [
    {
      "path": "force-app",
      "default": true
    },
    {
      "path": "LWCPackage",
      "default": false
    }
  ],
  "namespace": "",
  "sfdcLoginUrl": "https://login.salesforce.com",
  "sourceApiVersion": "50.0"
}
